[gd_scene load_steps=3 format=3 uid="uid://bem6a0tlxs1gf"]

[ext_resource type="Script" path="res://difficultyManager/difficulty_manager.gd" id="1_c58ph"]

[sub_resource type="Curve" id="Curve_oeyjm"]
min_value = 0.2
max_value = 2.0
_data = [Vector2(0, 2), 0.0, -1.75101, 0, 1, Vector2(0.995516, 0.256842), -1.75101, 0.0, 1, 0]
point_count = 2

[node name="DifficultyManager" type="Node"]
script = ExtResource("1_c58ph")
spawnTimeCurve = SubResource("Curve_oeyjm")

[node name="Timer" type="Timer" parent="."]
one_shot = true

[connection signal="timeout" from="Timer" to="." method="_on_timer_timeout"]
